INDEX VERSION 1.131+D:\Code\Java\.metadata\.plugins\org.eclipse.jdt.core
3457112362.index
1093552738.index
1636982607.index
3420316496.index
2236920813.index
3642464892.index
2898249282.index
2396709944.index
1823874578.index
160729767.index
3173656526.index
526184777.index
1046042467.index
1607931784.index
778332791.index
1036029337.index
332383186.index
1158928043.index
4219445297.index
391141953.index
3786350874.index
428222947.index
2328269416.index
2734325882.index
3108740221.index
930320710.index
2817987565.index
4147178321.index
1411973248.index
34708004.index
774989796.index
4257325822.index
657907325.index
2681600791.index
2888120545.index
2378670909.index
2709497916.index
1966944624.index
3760125788.index
499229714.index
1012913553.index
105072107.index
2485967645.index
1861660597.index
988495582.index
3033606151.index
3061579644.index
682963962.index
2792112484.index
2619689787.index
1389570320.index
3079516570.index
191800628.index
