<?xml version="1.0" encoding="UTF-8"?>
<session version="1.0">
<refactoring comment="Delete resource &apos;ScratchPad&apos;" deleteContents="true" description="Delete resource &apos;ScratchPad&apos;" element1="/ScratchPad" flags="7" id="org.eclipse.ltk.core.refactoring.delete.resources" resources="1" stamp="1558026504793"/>
</session>