<?xml version="1.0" encoding="UTF-8"?>
<session version="1.0">
<refactoring comment="Delete resource &apos;LogiPlugin-0.0.1-SNAPSHOT&apos;" deleteContents="true" description="Delete resource &apos;LogiPlugin-0.0.1-SNAPSHOT&apos;" element1="/LogiPlugin-0.0.1-SNAPSHOT" flags="7" id="org.eclipse.ltk.core.refactoring.delete.resources" resources="1" stamp="1533060195483"/>
</session>